module github.com/kamalshkeir/kmux

go 1.20

require (
	github.com/kamalshkeir/klog v1.0.0
	golang.org/x/crypto v0.6.0
	golang.org/x/text v0.7.0
	golang.org/x/time v0.3.0
)

require golang.org/x/net v0.7.0 // indirect
